<?xml version="1.0" encoding="utf-8"?>
<!-- Generator: Adobe Illustrator 22.1.0, SVG Export Plug-In . SVG Version: 6.00 Build 0)  -->
<svg version="1.0" id="Layer_1" xmlns="http://www.w3.org/2000/svg" xmlns:xlink="http://www.w3.org/1999/xlink" x="0px" y="0px"
	 viewBox="0 0 1970 69" enable-background="new 0 0 1970 69" xml:space="preserve">
<path fill="#FFFFFF" d="M0,45.779c0,0,184.042-18.034,418.837-13.345c348.011,6.949,807.92,37.172,948.544,33.877
	C1624.631,60.281,1971-0.416,1971-0.416v70.833H0V45.779z"/>
</svg>
